digraph "Graphical Class Hierarchy"
{
 // LATEX_PDF_SIZE
  edge [fontname="Helvetica",fontsize="10",labelfontname="Helvetica",labelfontsize="10"];
  node [fontname="Helvetica",fontsize="10",shape=record];
  rankdir="LR";
  Node0 [label="Model.Password",height=0.2,width=0.4,color="black", fillcolor="white", style="filled",URL="$class_model_1_1_password.html",tooltip="class that manages the behavior of the the password checkboxes"];
}
